<?xml version="1.0" encoding="iso-8859-1"?>
<!-- Generator: Adobe Illustrator 22.1.0, SVG Export Plug-In . SVG Version: 6.00 Build 0)  -->
<svg version="1.1" id="Capa_1" xmlns="http://www.w3.org/2000/svg" xmlns:xlink="http://www.w3.org/1999/xlink" x="0px" y="0px"
	 viewBox="-49 141 512 512" style="enable-background:new -49 141 512 512;" xml:space="preserve">
<path style="fill:#87CED9;" d="M189.4,173.984c-83.348,9.635-143.104,85.013-133.469,168.361
	C60.275,379.927,78.486,414.536,107,439.4c18.824,16.28,32.507,37.682,39.384,61.6H267.52c6.545-23.691,19.993-44.898,38.632-60.92
	c63.613-54.73,70.814-150.666,16.084-214.278C289.314,187.536,239.537,168.119,189.4,173.984L189.4,173.984z"/>
<g>
	<path style="fill:#6A9923;" d="M223,429h-16l0,0c0-53.019,42.981-96,96-96h16l0,0C319,386.019,276.019,429,223,429z"/>
	<path style="fill:#6A9923;" d="M207,325L207,325c0-35.346,28.654-64,64-64l0,0C271,296.346,242.346,325,207,325z"/>
</g>
<g>
	<path style="fill:#88B337;" d="M95,333h16c53.019,0,96,42.981,96,96l0,0h-16C137.981,429,95,386.019,95,333L95,333z"/>
	<path style="fill:#88B337;" d="M207,509c-4.418,0-8-3.582-8-8V317c0-4.418,3.582-8,8-8s8,3.582,8,8v184
		C215,505.418,211.418,509,207,509z"/>
	<path style="fill:#88B337;" d="M143,261c35.346,0,64,28.654,64,64l0,0C171.654,325,143,296.346,143,261L143,261z"/>
</g>
<path style="fill:#DEDEDE;" d="M279,493H135c-4.418,0-8,3.582-8,8s3.582,8,8,8h13.368c1.724,7.884,2.607,15.929,2.632,24v48
	c0,8.837,7.163,16,16,16h80c8.837,0,16-7.163,16-16v-48c0.022-8.068,0.885-16.111,2.576-24H279c4.418,0,8-3.582,8-8
	S283.418,493,279,493z"/>
<path style="fill:#CFCFCF;" d="M231,509c-1.691,7.889-2.554,15.932-2.576,24v48c0,8.837-7.163,16-16,16H247c8.837,0,16-7.163,16-16
	v-48c0.022-8.068,0.885-16.111,2.576-24H231z"/>
<g>
	<path style="fill:#BABABA;" d="M183,597h48l0,0v8c0,13.255-10.745,24-24,24l0,0c-13.255,0-24-10.745-24-24l0,0V597L183,597z"/>
	<path style="fill:#BABABA;" d="M263,573H151c-4.418,0-8-3.582-8-8s3.582-8,8-8h112c4.418,0,8,3.582,8,8S267.418,573,263,573z"/>
	<path style="fill:#BABABA;" d="M263,541H151c-4.418,0-8-3.582-8-8s3.582-8,8-8h112c4.418,0,8,3.582,8,8S267.418,541,263,541z"/>
</g>
</svg>
