<?xml version="1.0" encoding="iso-8859-1"?>
<svg version="1.1" id="Capa_1" xmlns="http://www.w3.org/2000/svg" xmlns:xlink="http://www.w3.org/1999/xlink" x="0px" y="0px"
	 viewBox="-61 152.2 488.8 488.8" style="enable-background:new -61 152.2 488.8 488.8;" xml:space="preserve">
<path style="fill:#32A6CE;" d="M320.6,352.6c-12,0-21.6,3.2-29.6,4.8l-2.4,18.4c4-1.6,15.2-4.8,24.8-5.6c9.6,0,15.2,1.6,13.6,10.4
	c-28.8,0-48,5.6-52,24.8c-5.6,32,29.6,32.8,43.2,18.4l-1.6,8.8h25.6l11.2-52C357.4,359,338.2,351.8,320.6,352.6z M322.2,406.2
	c-1.6,6.4-7.2,8.8-13.6,9.6c-5.6,0-10.4-3.2-7.2-9.6c3.2-4.8,10.4-4.8,16-4.8c1.6,0,4,0,6.4,0C323,400.6,322.2,403.8,322.2,406.2z"
	/>
<path style="fill:#1A80AD;" d="M288.6,375.8c4-1.6,15.2-4.8,24.8-5.6c9.6,0,15.2,1.6,13.6,10.4c-28.8,0-48,5.6-52,24.8
	c-5.6,32,29.6,32.8,43.2,18.4l-1.6,8.8h25.6l11.2-52c4.8-21.6-15.2-27.2-32.8-27.2 M322.2,406.2c-1.6,6.4-7.2,8.8-13.6,9.6
	c-5.6,0-10.4-3.2-7.2-9.6c3.2-4.8,10.4-4.8,16-4.8c1.6,0,4,0,6.4,0C323,400.6,322.2,403.8,322.2,406.2z"/>
<polygon style="fill:#32A6CE;" points="375,328.6 354.2,432.6 379.8,432.6 401.4,328.6 "/>
<polygon style="fill:#1A80AD;" points="393.4,328.6 354.2,432.6 379.8,432.6 401.4,328.6 375,328.6 375,328.6 "/>
<path style="fill:#32A6CE;" d="M255.8,328.6h-47.2l-20.8,104h28l7.2-32h20c19.2,0,35.2-11.2,39.2-31.2
	C286.2,346.2,269.4,328.6,255.8,328.6z M255,364.6c-1.6,7.2-8.8,12-16,12h-12.8l5.6-24h13.6C252.6,352.6,256.6,357.4,255,364.6z"/>
<path style="fill:#1A80AD;" d="M255.8,328.6h-32l-36.8,104h28l7.2-32h20c19.2,0,35.2-11.2,39.2-31.2
	C286.2,346.2,269.4,328.6,255.8,328.6z M255,364.6c-1.6,7.2-8.8,12-16,12h-12.8l5.6-24h13.6C252.6,352.6,256.6,357.4,255,364.6z"/>
<path style="fill:#21789E;" d="M71,352.6c-12,0-21.6,3.2-28.8,4.8l-2.4,18.4c3.2-1.6,15.2-4.8,24.8-5.6c9.6,0,15.2,1.6,13.6,10.4
	c-28,0-47.2,5.6-51.2,24.8c-5.6,32,28.8,32.8,42.4,18.4l-1.6,8.8h25.6l11.2-52C108.6,359,88.6,351.8,71,352.6z M73.4,406.2
	c-1.6,6.4-7.2,8.8-13.6,9.6c-5.6,0-10.4-3.2-6.4-9.6c3.2-4.8,10.4-4.8,15.2-4.8c2.4,0,4,0,6.4,0C74.2,400.6,73.4,403.8,73.4,406.2z"
	/>
<path style="fill:#1A5B80;" d="M40.6,375.8c3.2-1.6,15.2-4.8,24.8-5.6c9.6,0,15.2,1.6,13.6,10.4c-28,0-47.2,5.6-51.2,24.8
	c-5.6,32,28.8,32.8,42.4,18.4l-2.4,8.8h25.6l11.2-52c4.8-21.6-15.2-27.2-32.8-27.2 M73.4,406.2c-1.6,6.4-7.2,8.8-13.6,9.6
	c-5.6,0-10.4-3.2-6.4-9.6c3.2-4.8,10.4-4.8,15.2-4.8c2.4,0,4,0,6.4,0C74.2,400.6,73.4,403.8,73.4,406.2z"/>
<polygon style="fill:#21789E;" points="115,352.6 140.6,352.6 144.6,397.4 170.2,352.6 196.6,352.6 135.8,464.6 107,464.6 
	125.4,431 "/>
<polyline style="fill:#1A5B80;" points="140.6,354.2 144.6,398.2 170.2,352.6 196.6,352.6 135.8,464.6 107,464.6 125.4,431.8 "/>
<path style="fill:#21789E;" d="M7.8,328.6h-48l-20.8,104h28l7.2-32h20c19.2,0,35.2-11.2,39.2-31.2C38.2,346.2,21.4,328.6,7.8,328.6z
	 M7,364.6c-1.6,7.2-8.8,12-16,12h-12.8l5.6-24h13.6C4.6,352.6,8.6,357.4,7,364.6z"/>
<path style="fill:#1A5B80;" d="M7.8,328.6h-21.6l-47.2,104h28l7.2-32h20c19.2,0,35.2-11.2,39.2-31.2
	C38.2,346.2,21.4,328.6,7.8,328.6z M7,364.6c-1.6,7.2-8.8,12-16,12h-12.8l5.6-24h13.6C4.6,352.6,8.6,357.4,7,364.6z"/>
<g>
	<path style="fill:#06435E;" d="M66.2,380.6c-21.6,1.6-36,8-39.2,24c-5.6,32,28.8,32.8,42.4,18.4l-1.6,9.6h25.6l4-19.2L66.2,380.6z
		 M73.4,406.2c-1.6,6.4-7.2,8.8-13.6,9.6c-5.6,0-10.4-3.2-6.4-9.6c3.2-4.8,10.4-4.8,15.2-4.8c2.4,0,4,0,6.4,0
		C74.2,400.6,73.4,403.8,73.4,406.2z"/>
	<polygon style="fill:#06435E;" points="146.2,396.6 144.6,399 161.4,415 196.6,352.6 170.2,352.6 	"/>
	<polygon style="fill:#06435E;" points="-33,432.6 -25.8,400.6 -58.6,432.6 	"/>
</g>
<g>
	<polygon style="fill:#2273AA;" points="215,432.6 222.2,399 222.2,399.8 189.4,432.6 	"/>
	<path style="fill:#2273AA;" d="M315,380.6c-21.6,1.6-36,8-39.2,24c-5.6,32,29.6,32.8,43.2,18.4l-2.4,9.6h25.6l4-19.2L315,380.6z
		 M322.2,406.2c-1.6,6.4-7.2,8.8-13.6,9.6c-5.6,0-10.4-3.2-7.2-9.6c3.2-4.8,10.4-4.8,16-4.8c1.6,0,4,0,6.4,0
		C323,400.6,322.2,403.8,322.2,406.2z"/>
	<polygon style="fill:#2273AA;" points="372.6,385.4 354.2,432.6 379.8,432.6 387,400.6 	"/>
</g>
<g>
	<path style="fill:#32A6CE;" d="M407,345.4v-11.2h-4v-1.6h10.4v1.6h-4v11.2H407z"/>
	<path style="fill:#32A6CE;" d="M415,345.4v-12.8h2.4l3.2,8.8c0,0.8,0.8,1.6,0.8,1.6c0-0.8,0-0.8,0.8-2.4l3.2-8.8h2.4v12.8h-1.6
		v-11.2l-4,11.2h-2.4l-4-11.2v11.2H415V345.4z"/>
</g>
</svg>
