<?xml version="1.0" encoding="utf-8"?>
<svg version="1.1" id="Calque_1" xmlns="http://www.w3.org/2000/svg" xmlns:xlink="http://www.w3.org/1999/xlink" x="0px" y="0px"
	 viewBox="0 0 110.5 110.5" style="enable-background:new 0 0 110.5 110.5;" xml:space="preserve">
<style type="text/css">
	.st0{fill:#93C01F;}
	.st1{fill:#6A9923;}
	.st2{fill:#88B337;}
	.st3{fill:#8C421C;}
	.st4{fill:#733616;}
	.st5{fill:#F2BB80;}
</style>
<title>logo-compensationdefrichement</title>
<path class="st0" d="M50.9,100.4l-5.1-9c-0.9-1.6-3-2.2-4.6-1.3s-2.2,3-1.3,4.6l1.2,2.1C18.2,88.9,5.9,64,13.7,41
	c4.7-13.7,15.8-24.3,29.7-28.2c1.8-0.5,2.8-2.3,2.3-4.1s-2.3-2.8-4.1-2.3l0,0c-10.5,3-19.8,9.2-26.5,17.9C0.6,43.3,1.3,69.9,16.8,88
	c6,7,13.7,12.2,22.5,15.1l-1.9,1.1c-1.6,0.9-2.2,3-1.3,4.6s3,2.2,4.6,1.3l9-5.1C51.3,104,51.8,102,50.9,100.4
	C50.9,100.4,50.9,100.4,50.9,100.4z"/>
<path class="st0" d="M93.7,22.3c-5.9-6.9-13.6-12.2-22.3-15.1l1.7-0.9c1.6-0.9,2.2-2.9,1.3-4.5c-0.9-1.6-2.9-2.2-4.5-1.3l-9.1,5
	c-1.6,0.9-2.2,2.9-1.3,4.5c0,0,0,0,0,0l5,9.1c0.9,1.6,2.9,2.2,4.5,1.3c1.6-0.9,2.2-2.9,1.3-4.5l0,0l-1.3-2.4
	c23,7.7,35.4,32.5,27.8,55.6c-4.6,13.9-15.9,24.5-30,28.4c-1.8,0.5-2.8,2.3-2.3,4.1c0.5,1.8,2.3,2.8,4.1,2.3l0,0
	C79.2,101,88.6,94.7,95.3,86C109.9,67.1,109.3,40.5,93.7,22.3z"/>
<path class="st1" d="M74,49.8h-2.6c0-4.3,3.4-7.7,7.7-7.8c0,0,0,0,0,0h2.6C81.8,46.3,78.3,49.8,74,49.8C74.1,49.8,74,49.8,74,49.8z"
	/>
<path class="st2" d="M41,27.9h3.8c6.3,0,11.4,5.1,11.4,11.4l0,0h-3.8C46.1,39.3,41,34.2,41,27.9L41,27.9L41,27.9z"/>
<path class="st1" d="M60,39.3h-3.8c0-6.3,5.1-11.4,11.4-11.4l0,0h3.8C71.5,34.2,66.3,39.3,60,39.3L60,39.3z"/>
<path class="st2" d="M56.2,50.8c-0.6,0-1-0.4-1-1V39.3c-0.2-0.5,0.1-1.1,0.7-1.3c0.5-0.2,1.1,0.1,1.3,0.7c0.1,0.2,0.1,0.4,0,0.6
	v10.5C57.1,50.3,56.7,50.7,56.2,50.8z"/>
<path class="st2" d="M30.6,42h2.6c4.3,0,7.7,3.5,7.7,7.7h-2.6C34.1,49.8,30.6,46.3,30.6,42L30.6,42L30.6,42z"/>
<path class="st1" d="M43.5,49.8h-2.6c0-4.3,3.5-7.7,7.7-7.7h2.6C51.3,46.3,47.8,49.8,43.5,49.8z"/>
<path class="st2" d="M41,63.7c-0.5-0.2-0.7-0.6-0.6-1.1V50.3c-0.2-0.4-0.1-0.8,0.3-1c0.4-0.2,0.8-0.1,1,0.3c0.1,0.2,0.1,0.5,0,0.7
	v12.3C41.7,63,41.4,63.5,41,63.7z"/>
<path class="st2" d="M61.1,42h2.6c4.3,0,7.7,3.5,7.7,7.7h-2.6C64.6,49.8,61.1,46.3,61.1,42L61.1,42z"/>
<path class="st2" d="M71.5,64.3c-0.5-0.2-0.8-0.7-0.6-1.2V50.3c-0.2-0.4-0.1-0.8,0.2-1c0.4-0.2,0.8-0.1,1,0.2c0.2,0.2,0.2,0.6,0,0.8
	v12.8C72.2,63.6,71.9,64.1,71.5,64.3z"/>
<path class="st3" d="M75.3,66.9H37.1l14.2-15.1c2.5-2.7,6.7-2.8,9.4-0.3c0.1,0.1,0.2,0.2,0.3,0.3L75.3,66.9z"/>
<path class="st4" d="M64,55c-4.2,4.7-9.1,8.7-14.6,11.9h25.8L64,55z"/>
<path class="st5" d="M78.9,57.4c-0.6,0-1.2,0.2-1.7,0.5l-7.5,5.3L64.6,67h-20c-1.1-0.1-1.8-1-1.8-2c0.1-0.9,0.8-1.7,1.8-1.8H57
	c1.6,0,2.9-1.3,2.9-2.9c0-1.6-1.3-2.8-2.9-2.9H43.5c-3.9,0-7.4,2.4-8.9,6l-8.1,18.7h17.2l1.9-5.7l19.1-1.9l16-11.5
	c0.8-0.5,1.2-1.4,1.2-2.3v-0.4C81.8,58.7,80.5,57.4,78.9,57.4L78.9,57.4L78.9,57.4L78.9,57.4z"/>
</svg>
