<?xml version="1.0" encoding="iso-8859-1"?>
<!-- Generator: Adobe Illustrator 22.1.0, SVG Export Plug-In . SVG Version: 6.00 Build 0)  -->
<svg version="1.1" id="Capa_1" xmlns="http://www.w3.org/2000/svg" xmlns:xlink="http://www.w3.org/1999/xlink" x="0px" y="0px"
	 viewBox="-53 145 504 504" style="enable-background:new -53 145 504 504;" xml:space="preserve">
<polygon style="fill:#3C58BF;" points="131.8,469.4 157.4,325.4 197.4,325.4 172.6,469.4 "/>
<polygon style="fill:#293688;" points="131.8,469.4 164.6,325.4 197.4,325.4 172.6,469.4 "/>
<path style="fill:#3C58BF;" d="M317.4,327c-8-3.2-20.8-6.4-36.8-6.4c-40,0-68.8,20-68.8,48.8c0,21.6,20,32.8,36,40
	s20.8,12,20.8,18.4c0,9.6-12.8,14.4-24,14.4c-16,0-24.8-2.4-38.4-8l-5.6-2.4l-5.6,32.8c9.6,4,27.2,8,45.6,8
	c42.4,0,70.4-20,70.4-50.4c0-16.8-10.4-29.6-34.4-40c-14.4-7.2-23.2-11.2-23.2-18.4c0-6.4,7.2-12.8,23.2-12.8
	c13.6,0,23.2,2.4,30.4,5.6l4,1.6L317.4,327L317.4,327z"/>
<path style="fill:#293688;" d="M317.4,327c-8-3.2-20.8-6.4-36.8-6.4c-40,0-61.6,20-61.6,48.8c0,21.6,12.8,32.8,28.8,40
	s20.8,12,20.8,18.4c0,9.6-12.8,14.4-24,14.4c-16,0-24.8-2.4-38.4-8l-5.6-2.4l-5.6,32.8c9.6,4,27.2,8,45.6,8
	c42.4,0,70.4-20,70.4-50.4c0-16.8-10.4-29.6-34.4-40c-14.4-7.2-23.2-11.2-23.2-18.4c0-6.4,7.2-12.8,23.2-12.8
	c13.6,0,23.2,2.4,30.4,5.6l4,1.6L317.4,327L317.4,327z"/>
<path style="fill:#3C58BF;" d="M386.2,325.4c-9.6,0-16.8,0.8-20.8,10.4l-60,133.6h43.2l8-24h51.2l4.8,24H451l-33.6-144H386.2z
	 M367.8,421.4c2.4-7.2,16-42.4,16-42.4s3.2-8.8,5.6-14.4l2.4,13.6c0,0,8,36,9.6,44h-33.6V421.4z"/>
<path style="fill:#293688;" d="M395.8,325.4c-9.6,0-16.8,0.8-20.8,10.4l-69.6,133.6h43.2l8-24h51.2l4.8,24H451l-33.6-144H395.8z
	 M367.8,421.4c3.2-8,16-42.4,16-42.4s3.2-8.8,5.6-14.4l2.4,13.6c0,0,8,36,9.6,44h-33.6V421.4z"/>
<path style="fill:#3C58BF;" d="M58.2,426.2l-4-20.8c-7.2-24-30.4-50.4-56-63.2l36,128h43.2l64.8-144H99L58.2,426.2z"/>
<path style="fill:#293688;" d="M58.2,426.2l-4-20.8c-7.2-24-30.4-50.4-56-63.2l36,128h43.2l64.8-144H107L58.2,426.2z"/>
<path style="fill:#FFBC00;" d="M-53,325.4l7.2,1.6c51.2,12,86.4,42.4,100,78.4l-14.4-68c-2.4-9.6-9.6-12-18.4-12H-53z"/>
<path style="fill:#F7981D;" d="M-53,325.4L-53,325.4c51.2,12,93.6,43.2,107.2,79.2l-13.6-56.8c-2.4-9.6-10.4-15.2-19.2-15.2
	L-53,325.4z"/>
<path style="fill:#ED7C00;" d="M-53,325.4L-53,325.4c51.2,12,93.6,43.2,107.2,79.2l-9.6-31.2c-2.4-9.6-5.6-19.2-16.8-23.2L-53,325.4
	z"/>
<g>
	<path style="fill:#051244;" d="M98.2,421.4L71,394.2l-12.8,30.4l-3.2-20c-7.2-24-30.4-50.4-56-63.2l36,128h43.2L98.2,421.4z"/>
	<polygon style="fill:#051244;" points="172.6,469.4 138.2,434.2 131.8,469.4 	"/>
	<path style="fill:#051244;" d="M264.6,419.8L264.6,419.8c3.2,3.2,4.8,5.6,4,8.8c0,9.6-12.8,14.4-24,14.4c-16,0-24.8-2.4-38.4-8
		l-5.6-2.4l-5.6,32.8c9.6,4,27.2,8,45.6,8c25.6,0,46.4-7.2,58.4-20L264.6,419.8z"/>
	<path style="fill:#051244;" d="M311,469.4h37.6l8-24h51.2l4.8,24H451L437.4,411l-48-46.4l2.4,12.8c0,0,8,36,9.6,44h-33.6
		c3.2-8,16-42.4,16-42.4s3.2-8.8,5.6-14.4"/>
</g>
</svg>
